{
  "taskType" : "TO_MAX",
  "fractionType" : "COMMON",
  "targetFunction" : [ {
    "numerator" : 1,
    "denominator" : 1
  }, {
    "numerator" : 1,
    "denominator" : 1
  }, {
    "numerator" : 1,
    "denominator" : 1
  }, {
    "numerator" : 1,
    "denominator" : 1
  }, {
    "numerator" : 0,
    "denominator" : 1
  } ],
  "restrictions" : {
    "data" : [ [ {
      "numerator" : 1,
      "denominator" : 1
    }, {
      "numerator" : 3,
      "denominator" : 1
    }, {
      "numerator" : 1,
      "denominator" : 1
    }, {
      "numerator" : 2,
      "denominator" : 1
    }, {
      "numerator" : 5,
      "denominator" : 1
    } ], [ {
      "numerator" : 2,
      "denominator" : 1
    }, {
      "numerator" : 0,
      "denominator" : 1
    }, {
      "numerator" : -1,
      "denominator" : 1
    }, {
      "numerator" : 1,
      "denominator" : 1
    }, {
      "numerator" : 1,
      "denominator" : 1
    } ] ]
  },
  "nRestr" : 2,
  "nVars" : 4
}